<?xml version="1.0" encoding="UTF-8"?>
<svg width="372px" height="507px" viewBox="0 0 372 507" version="1.1" xmlns="http://www.w3.org/2000/svg" xmlns:xlink="http://www.w3.org/1999/xlink">
    <!-- Generator: Sketch 52.2 (67145) - http://www.bohemiancoding.com/sketch -->
    <title>Group 6</title>
    <desc>Created with Sketch.</desc>
    <defs>
        <polygon id="path-1" points="0 0.0858979178 371.737594 0.0858979178 371.737594 506.245177 0 506.245177"></polygon>
    </defs>
    <g id="Home" stroke="none" stroke-width="1" fill="none" fill-rule="evenodd">
        <g transform="translate(-262.000000, -1427.000000)" id="Group-6">
            <g transform="translate(448.000000, 1680.500000) rotate(-360.000000) translate(-448.000000, -1680.500000) translate(262.000000, 1427.000000)">
                <g id="Group-3">
                    <mask id="mask-2" fill="white">
                        <use xlink:href="#path-1"></use>
                    </mask>
                    <g id="Clip-2"></g>
                    <path d="M182.078007,292.739805 L98.9363467,222.027236 L118.994302,198.106298 L142.883156,218.148958 C146.209526,220.924186 151.102283,220.495874 153.847858,217.163254 C156.6169,213.906908 156.194504,209.007722 152.879867,206.203157 L129.032079,186.166365 C129.026212,186.160498 129.020346,186.160498 129.014479,186.15463 L149.066567,162.245427 L190.889662,197.337684 C194.174966,200.112911 199.079456,199.66113 201.883698,196.357846 C204.629273,193.078032 204.20101,188.172978 200.868773,185.39775 L159.069145,150.317228 L179.121234,126.408025 L179.1271,126.413892 L203.004221,146.43895 C206.336458,149.243514 211.270281,148.791733 214.00999,145.488449 C216.737966,142.173431 216.315569,137.268377 213.030265,134.493149 L189.135544,114.468091 L209.181766,90.558888 C209.187633,90.558888 209.187633,90.5647553 209.187633,90.5647553 L251.010727,125.662879 C254.301898,128.40877 259.229854,127.980458 262.004763,124.659573 C264.779672,121.368023 264.322076,116.46297 261.036772,113.687742 L219.184344,78.6365564 L239.248165,54.7097512 L239.254032,54.7156185 L263.166353,74.7641456 C266.42819,77.5335061 271.362013,77.1110613 274.131055,73.8136447 C276.905964,70.4986264 276.483568,65.5935726 273.180664,62.7948757 L249.250743,42.7815524 L269.314565,18.8547471 L352.954887,89.0392601 L182.078007,292.739805 Z M218.304352,487.422327 L18.7690597,317.59951 L88.9161691,233.990639 L288.439728,403.78412 L218.304352,487.422327 Z M273.339062,1.89241417 C270.053758,-0.853477156 265.143402,-0.425165047 262.37436,2.87811875 L81.9876974,217.961205 L1.80281063,313.545213 C-0.936898334,316.871966 -0.514502091,321.782887 2.80013509,324.558114 L214.250521,504.431598 C217.535825,507.206826 222.446181,506.737443 225.22109,503.445894 L305.40011,407.838417 C308.163286,404.570337 307.72329,399.600743 304.461452,396.825515 L193.975501,302.860879 L369.88007,93.0407513 C372.690178,89.7550694 372.267782,84.8441484 368.912079,82.0747879 L273.339062,1.89241417 Z" id="Fill-1" fill="#FAC42B" mask="url(#mask-2)"></path>
                </g>
                <path d="M205.477475,406.488192 C208.295739,403.142879 213.218858,402.712178 216.55007,405.532388 C219.863594,408.264098 220.299895,413.249617 217.51111,416.524129 C214.745909,419.816341 209.763831,420.306042 206.462099,417.515332 C203.142678,414.724622 202.71817,409.792204 205.477475,406.488192 M229.538849,426.577765 C237.828556,416.689329 236.549135,401.827175 226.59677,393.472744 C216.709261,385.165513 201.833777,386.451718 193.473319,396.405055 C185.154133,406.334791 186.463034,421.185146 196.415399,429.527776 C206.338284,437.846807 221.178391,436.537002 229.538849,426.577765" id="Fill-4" fill="#FAC42B"></path>
            </g>
        </g>
    </g>
</svg>