<?xml version="1.0" standalone="no"?>
<!DOCTYPE svg PUBLIC "-//W3C//DTD SVG 20010904//EN"
 "http://www.w3.org/TR/2001/REC-SVG-20010904/DTD/svg10.dtd">
<svg version="1.0" xmlns="http://www.w3.org/2000/svg"
 width="700.000000pt" height="700.000000pt" viewBox="0 0 700.000000 700.000000"
 preserveAspectRatio="xMidYMid meet">
<metadata>
Created by potrace 1.11, written by Peter Selinger 2001-2013
</metadata>
<g transform="translate(0.000000,700.000000) scale(0.100000,-0.100000)"
fill="#000000" stroke="none">
<path d="M2250 3499 l0 -1490 883 3 c867 4 884 4 997 27 411 80 657 265 752
565 14 43 21 103 25 201 5 121 2 152 -16 229 -57 237 -213 397 -495 506 l-70
27 60 32 c274 146 406 377 391 681 -19 393 -312 646 -809 700 -60 6 -411 10
-908 10 l-810 0 0 -1491z m1508 787 c112 -52 158 -132 150 -260 -7 -117 -78
-195 -213 -232 -47 -13 -126 -17 -367 -21 l-308 -6 0 277 0 277 338 -3 337 -3
63 -29z m-45 -1066 c140 -14 209 -39 269 -100 37 -38 49 -59 59 -105 24 -108
-18 -217 -104 -272 -87 -56 -135 -62 -544 -62 l-373 -1 0 275 0 275 293 0
c160 0 340 -5 400 -10z"/>
</g>
</svg>
